<?xml version="1.0" encoding="UTF-8"?>
<svg xmlns="http://www.w3.org/2000/svg" xmlns:xlink="http://www.w3.org/1999/xlink" width="1053.421875pt" height="1504.015625pt" viewBox="0 0 1053.421875 1504.015625" version="1.1">
<defs>
<g>
<symbol overflow="visible" id="glyph0-0">
<path style="stroke:none;" d=""/>
</symbol>
<symbol overflow="visible" id="glyph0-1">
<path style="stroke:none;" d="M 135.421875 -130.5625 L 110.34375 -122.875 C 102.40625 -128.765625 92.15625 -131.84375 80.640625 -131.84375 C 43.265625 -131.84375 12.796875 -101.890625 12.796875 -65.28125 C 12.796875 -27.390625 43.265625 3.84375 80.640625 3.84375 C 92.421875 3.84375 102.40625 -0.515625 110.34375 -7.421875 L 110.34375 27.140625 C 110.34375 36.609375 103.171875 46.078125 87.296875 46.078125 L 87.296875 51.203125 L 150.78125 51.203125 L 150.78125 46.078125 C 140.28125 46.078125 135.421875 36.609375 135.421875 27.140625 Z M 81.15625 -2.046875 C 51.453125 -2.046875 41.21875 -36.09375 41.21875 -71.6875 C 41.21875 -106.75 54.53125 -125.953125 79.609375 -125.953125 C 98.046875 -125.953125 110.34375 -110.59375 110.34375 -88.0625 L 110.34375 -16.890625 C 105.734375 -8.1875 96.515625 -2.046875 81.15625 -2.046875 Z M 81.15625 -2.046875 "/>
</symbol>
<symbol overflow="visible" id="glyph0-2">
<path style="stroke:none;" d="M 110.84375 -189.953125 L 104.953125 -194.046875 L 73.21875 -177.65625 C 64.765625 -183.296875 55.8125 -188.921875 46.84375 -193.796875 L 41.734375 -190.203125 C 49.40625 -185.34375 57.09375 -179.453125 64.25 -172.796875 L 36.359375 -158.46875 L 42.234375 -154.375 L 69.125 -168.1875 C 81.40625 -155.90625 92.15625 -142.078125 99.328125 -129.28125 C 93.4375 -131.078125 87.046875 -131.84375 80.640625 -131.84375 C 43.265625 -131.84375 12.796875 -101.890625 12.796875 -65.28125 C 12.796875 -27.390625 43.265625 3.84375 80.640625 3.84375 C 118.015625 3.84375 148.484375 -27.390625 148.484375 -65.28125 C 148.484375 -107.78125 118.78125 -144.890625 79.109375 -173.5625 Z M 84.484375 -2.296875 C 59.140625 -0.25 44.03125 -21.25 41.46875 -62.203125 C 38.90625 -101.625 51.203125 -123.90625 76.796875 -125.703125 C 102.140625 -127.75 117.25 -107.78125 119.546875 -68.359375 C 122.375 -27.140625 110.078125 -4.09375 84.484375 -2.296875 Z M 84.484375 -2.296875 "/>
</symbol>
<symbol overflow="visible" id="glyph0-3">
<path style="stroke:none;" d="M 58.625 -20.984375 L 58.625 -198.140625 C 43.015625 -195.078125 28.421875 -193.03125 12.796875 -192 L 12.796875 -186.875 C 26.875 -186.375 33.53125 -180.984375 33.53125 -171.015625 L 33.53125 -20.984375 C 33.53125 -11.515625 26.875 -5.890625 12.796875 -5.125 L 12.796875 0 L 79.359375 0 L 79.359375 -5.125 C 65.28125 -5.890625 58.625 -11.515625 58.625 -20.984375 Z M 58.625 -20.984375 "/>
</symbol>
<symbol overflow="visible" id="glyph0-4">
<path style="stroke:none;" d="M 145.65625 -20.984375 L 145.65625 -134.140625 C 130.046875 -131.078125 115.453125 -129.03125 99.84375 -128 L 99.84375 -122.875 C 113.921875 -122.375 120.578125 -116.984375 120.578125 -107.015625 L 120.578125 -33.796875 C 109.0625 -17.40625 94.96875 -5.125 80.890625 -5.125 C 66.5625 -5.125 58.625 -13.5625 58.625 -32 L 58.625 -134.140625 C 43.015625 -131.078125 28.421875 -129.03125 12.796875 -128 L 12.796875 -122.875 C 26.875 -122.375 33.53125 -116.984375 33.53125 -107.015625 L 33.53125 -29.4375 C 33.53125 -6.65625 44.03125 3.84375 68.609375 3.84375 C 88.0625 3.84375 104.703125 -4.609375 120.578125 -23.046875 L 120.578125 3.328125 L 166.40625 -4.09375 L 166.40625 -9.21875 C 152.3125 -7.171875 145.65625 -11.515625 145.65625 -20.984375 Z M 145.65625 -20.984375 "/>
</symbol>
<symbol overflow="visible" id="glyph0-5">
<path style="stroke:none;" d="M 30.203125 -102.40625 C 30.46875 -116.484375 38.65625 -125.4375 50.4375 -125.4375 C 66.5625 -125.4375 78.078125 -121.34375 79.109375 -111.109375 L 84.484375 -111.109375 L 82.6875 -128 C 72.453125 -130.5625 64 -131.84375 53.5 -131.84375 C 30.96875 -131.84375 15.875 -115.453125 15.875 -90.625 C 15.875 -45.3125 76.28125 -60.671875 76.28125 -25.09375 C 76.28125 -10.75 66.296875 -2.296875 52.484375 -2.296875 C 34.8125 -2.296875 20.484375 -11.78125 17.921875 -27.90625 L 12.796875 -27.90625 L 12.796875 1.28125 L 15.609375 1.28125 L 18.9375 -5.625 C 25.59375 0.25 38.140625 3.84375 49.65625 3.84375 C 74.234375 3.84375 89.59375 -15.109375 89.59375 -36.859375 C 89.59375 -84.484375 29.953125 -71.6875 30.203125 -102.40625 Z M 30.203125 -102.40625 "/>
</symbol>
<symbol overflow="visible" id="glyph0-6">
<path style="stroke:none;" d="M 47.109375 -167.171875 C 55.046875 -167.171875 61.4375 -173.5625 61.4375 -181.5 C 61.4375 -189.4375 55.046875 -195.84375 47.109375 -195.84375 C 39.171875 -195.84375 32.765625 -189.4375 32.765625 -181.5 C 32.765625 -173.5625 39.171875 -167.171875 47.109375 -167.171875 Z M 15.609375 -122.875 C 29.703125 -122.375 36.359375 -116.984375 36.359375 -107.015625 L 36.359375 0 C 36.359375 22.53125 28.15625 37.625 12.796875 43.515625 L 12.796875 51.203125 C 41.984375 42.5 61.4375 17.65625 61.4375 -11.015625 L 61.4375 -134.140625 C 45.828125 -131.078125 31.234375 -129.03125 15.609375 -128 Z M 15.609375 -122.875 "/>
</symbol>
<symbol overflow="visible" id="glyph0-7">
<path style="stroke:none;" d="M 135.421875 -20.984375 L 135.421875 -198.140625 C 119.8125 -195.078125 105.21875 -193.03125 89.59375 -192 L 89.59375 -186.875 C 103.6875 -186.375 110.34375 -180.984375 110.34375 -171.015625 L 110.34375 -118.53125 C 102.40625 -127.234375 92.15625 -131.84375 80.640625 -131.84375 C 43.265625 -131.84375 12.796875 -101.890625 12.796875 -65.28125 C 12.796875 -27.390625 43.265625 3.84375 80.640625 3.84375 C 93.1875 3.84375 103.421875 -0.765625 111.609375 -8.453125 L 113.921875 2.5625 L 156.15625 -4.09375 L 156.15625 -9.21875 C 142.078125 -7.171875 135.421875 -11.515625 135.421875 -20.984375 Z M 81.15625 -2.046875 C 51.453125 -2.046875 41.21875 -36.09375 41.21875 -71.6875 C 41.21875 -106.75 54.53125 -125.953125 79.609375 -125.953125 C 98.046875 -125.953125 110.34375 -110.59375 110.34375 -88.0625 L 110.34375 -31.75 C 109.3125 -16.125 104.453125 -2.046875 81.15625 -2.046875 Z M 81.15625 -2.046875 "/>
</symbol>
<symbol overflow="visible" id="glyph0-8">
<path style="stroke:none;" d="M 78.59375 -6.40625 C 57.09375 -6.40625 40.453125 -30.96875 40.453125 -71.9375 C 40.453125 -77.5625 40.703125 -82.6875 41.46875 -87.296875 L 122.875 -87.296875 C 122.875 -109.828125 105.21875 -131.84375 80.640625 -131.84375 C 43.265625 -131.84375 12.796875 -101.890625 12.796875 -65.28125 C 12.796875 -20.21875 36.609375 3.84375 78.078125 3.84375 C 94.203125 3.84375 111.109375 -4.359375 122.875 -16.890625 L 118.015625 -21.25 C 109.828125 -12.28125 94.96875 -6.40625 78.59375 -6.40625 Z M 78.078125 -125.953125 C 91.640625 -125.953125 100.609375 -117.765625 100.609375 -105.734375 C 100.609375 -99.84375 94.96875 -95.234375 87.296875 -94.96875 L 42.75 -93.703125 C 47.359375 -114.6875 59.90625 -125.953125 78.078125 -125.953125 Z M 78.078125 -125.953125 "/>
</symbol>
<symbol overflow="visible" id="glyph0-9">
<path style="stroke:none;" d="M 86.78125 -70.40625 L 110.34375 -101.625 C 119.046875 -113.40625 129.03125 -122.875 140.03125 -122.875 L 140.03125 -128 L 98.296875 -128 L 98.5625 -122.875 C 111.609375 -122.875 111.359375 -113.15625 102.65625 -101.625 L 83.71875 -76.28125 L 70.140625 -102.90625 C 64.25 -114.6875 62.96875 -122.875 73.734375 -122.875 L 73.734375 -128 L 13.5625 -128 L 13.5625 -122.875 C 28.15625 -122.875 37.890625 -116.484375 45.5625 -101.625 L 67.328125 -59.140625 L 42.5 -26.375 C 33.796875 -14.84375 23.8125 -5.125 12.796875 -5.125 L 12.796875 0 L 54.53125 0 L 54.53125 -5.125 C 41.21875 -5.125 41.734375 -14.84375 50.4375 -26.375 L 70.40625 -52.984375 L 84.734375 -25.09375 C 90.625 -13.3125 91.390625 -5.125 80.640625 -5.125 L 80.640625 0 L 140.796875 0 L 140.796875 -5.125 C 126.203125 -5.125 116.734375 -11.515625 109.3125 -26.375 Z M 86.78125 -70.40625 "/>
</symbol>
<symbol overflow="visible" id="glyph0-10">
<path style="stroke:none;" d="M 97.28125 -29.4375 C 96 -13.828125 93.1875 -6.140625 80.390625 -6.140625 L 37.890625 -6.140625 L 97.28125 -122.875 L 97.28125 -128 L 20.984375 -128 L 20.984375 -98.5625 L 26.109375 -98.5625 C 27.390625 -114.171875 29.703125 -121.859375 41.46875 -121.859375 L 71.6875 -121.859375 L 12.796875 -5.125 L 12.796875 0 L 102.40625 0 L 102.40625 -29.4375 Z M 97.28125 -29.4375 "/>
</symbol>
<symbol overflow="visible" id="glyph0-11">
<path style="stroke:none;" d="M 100.859375 -131.84375 C 86.78125 -131.84375 66.8125 -115.203125 58.625 -104.953125 L 58.625 -134.140625 C 43.015625 -131.078125 28.421875 -129.03125 12.796875 -128 L 12.796875 -122.875 C 26.875 -122.375 33.53125 -116.984375 33.53125 -107.015625 L 33.53125 -20.984375 C 33.53125 -11.515625 26.875 -5.890625 12.796875 -5.125 L 12.796875 0 L 78.078125 0 L 78.078125 -5.125 C 64 -5.625 58.625 -10.234375 58.625 -17.921875 L 58.625 -94.203125 C 69.125 -109.3125 80.890625 -121.859375 93.4375 -121.859375 C 104.453125 -121.859375 105.984375 -100.09375 113.40625 -100.09375 C 117.765625 -100.09375 120.3125 -102.90625 120.3125 -109.3125 C 120.3125 -121.59375 111.609375 -131.84375 100.859375 -131.84375 Z M 100.859375 -131.84375 "/>
</symbol>
<symbol overflow="visible" id="glyph0-12">
<path style="stroke:none;" d="M 98.046875 -13.3125 C 93.703125 -9.984375 81.65625 -5.125 72.453125 -5.125 C 59.640625 -5.125 53.25 -11.515625 53.25 -26.875 L 53.25 -120.828125 L 84.484375 -120.828125 L 84.484375 -128 L 53.25 -128 L 53.25 -163.84375 L 48.125 -163.84375 C 41.984375 -146.171875 29.703125 -133.625 12.796875 -128 L 12.796875 -120.828125 L 28.15625 -120.828125 L 28.15625 -32 C 28.15625 -13.5625 41.734375 3.84375 63.234375 3.84375 C 78.34375 3.84375 89.34375 0 99.84375 -6.140625 Z M 98.046875 -13.3125 "/>
</symbol>
<symbol overflow="visible" id="glyph0-13">
<path style="stroke:none;" d="M 102.65625 -128 L 102.65625 -122.875 C 115.203125 -122.875 118.78125 -117.5 115.71875 -105.984375 L 89.59375 -29.703125 L 59.90625 -104.1875 C 54.78125 -116.984375 57.859375 -122.875 68.609375 -122.875 L 68.609375 -128 L 12.796875 -128 L 12.796875 -122.875 C 23.046875 -122.875 29.953125 -116.484375 35.328125 -102.90625 L 78.078125 3.84375 L 84.21875 3.84375 L 120.828125 -102.90625 C 125.4375 -116.484375 133.125 -122.875 143.359375 -122.875 L 143.359375 -128 Z M 102.65625 -128 "/>
</symbol>
<symbol overflow="visible" id="glyph0-14">
<path style="stroke:none;" d="M 148.21875 -101.125 C 148.21875 -119.546875 134.140625 -131.84375 112.640625 -131.84375 C 92.421875 -131.84375 75.78125 -125.1875 58.625 -109.828125 L 58.625 -198.140625 C 43.015625 -195.078125 28.421875 -193.03125 12.796875 -192 L 12.796875 -186.875 C 26.875 -186.375 33.53125 -180.984375 33.53125 -171.015625 L 33.53125 -20.984375 C 33.53125 -11.515625 26.875 -5.890625 12.796875 -5.125 L 12.796875 0 L 78.078125 0 L 78.078125 -5.125 C 64 -5.625 58.625 -10.234375 58.625 -17.921875 L 58.625 -99.078125 C 70.65625 -112.890625 85.765625 -122.875 100.609375 -122.875 C 115.453125 -122.875 123.140625 -114.4375 123.140625 -96 L 123.140625 -17.921875 C 123.140625 -10.234375 117.765625 -5.625 103.6875 -5.125 L 103.6875 0 L 168.953125 0 L 168.953125 -5.125 C 154.875 -5.890625 148.21875 -11.515625 148.21875 -20.984375 Z M 148.21875 -101.125 "/>
</symbol>
<symbol overflow="visible" id="glyph0-15">
<path style="stroke:none;" d="M 92.671875 -195.84375 C 58.625 -195.84375 33.53125 -168.703125 33.53125 -128 L 33.53125 -121.859375 L 12.796875 -121.859375 L 12.796875 -114.6875 L 33.53125 -114.6875 L 33.53125 -20.984375 C 33.53125 -11.515625 26.875 -5.890625 12.796875 -5.125 L 12.796875 0 L 79.359375 0 L 79.359375 -5.125 C 65.28125 -5.890625 58.625 -11.515625 58.625 -20.984375 L 58.625 -114.6875 L 84.484375 -114.6875 L 84.484375 -121.859375 L 58.625 -121.859375 L 58.625 -146.171875 C 58.625 -171.78125 71.171875 -186.625 81.15625 -186.625 C 87.546875 -186.625 94.71875 -182.78125 100.359375 -177.65625 C 105.984375 -172.546875 111.875 -168.1875 116.21875 -168.1875 C 122.109375 -168.1875 128 -172.546875 128 -179.203125 C 128 -190.46875 107.265625 -195.84375 92.671875 -195.84375 Z M 92.671875 -195.84375 "/>
</symbol>
<symbol overflow="visible" id="glyph0-16">
<path style="stroke:none;" d="M 88.3125 -131.84375 C 77.5625 -131.84375 67.578125 -129.03125 58.625 -123.90625 L 58.625 -198.140625 C 43.015625 -195.078125 28.421875 -193.03125 12.796875 -192 L 12.796875 -186.875 C 26.875 -186.375 33.53125 -180.984375 33.53125 -171.015625 L 33.53125 -14.34375 C 45.828125 -5.125 65.796875 3.84375 88.3125 3.84375 C 125.703125 3.84375 156.15625 -27.390625 156.15625 -65.28125 C 156.15625 -101.890625 125.703125 -131.84375 88.3125 -131.84375 Z M 88.828125 -2.046875 C 69.375 -2.046875 58.625 -15.109375 58.625 -31.234375 L 58.625 -113.15625 C 65.28125 -121.59375 75.015625 -125.953125 88.0625 -125.953125 C 117.765625 -125.953125 126.96875 -93.4375 126.96875 -57.59375 C 126.96875 -18.6875 115.453125 -2.046875 88.828125 -2.046875 Z M 88.828125 -2.046875 "/>
</symbol>
<symbol overflow="visible" id="glyph0-17">
<path style="stroke:none;" d="M 12.796875 -122.875 C 23.046875 -122.875 30.203125 -116.484375 35.328125 -102.90625 L 75.515625 3.84375 L 81.65625 3.84375 L 111.359375 -82.6875 L 142.078125 3.84375 L 148.21875 3.84375 L 184.828125 -102.90625 C 189.4375 -116.484375 197.125 -122.875 207.359375 -122.875 L 207.359375 -128 L 166.65625 -128 L 166.65625 -122.875 C 179.203125 -122.875 182.78125 -117.5 179.71875 -105.984375 L 153.59375 -29.703125 L 120.3125 -122.875 L 119.046875 -122.875 L 87.046875 -29.703125 L 59.90625 -104.1875 C 55.296875 -117.25 57.859375 -122.875 68.609375 -122.875 L 68.609375 -128 L 12.796875 -128 Z M 12.796875 -122.875 "/>
</symbol>
<symbol overflow="visible" id="glyph0-18">
<path style="stroke:none;" d="M 16.640625 -122.875 C 26.375 -122.875 32.765625 -117.25 37.890625 -104.453125 L 78.078125 -3.84375 L 72.953125 11.515625 C 67.578125 27.90625 58.625 41.734375 50.171875 41.734375 C 42.234375 41.734375 40.953125 32.25 34.8125 32.25 C 31.484375 32.25 26.375 35.84375 26.375 41.46875 C 26.375 47.359375 32.515625 51.203125 42.75 51.203125 C 58.375 51.203125 71.171875 35.84375 78.84375 11.515625 L 118.265625 -104.453125 C 122.625 -117.25 129.796875 -122.875 139.515625 -122.875 L 139.515625 -128 L 101.125 -128 L 101.125 -122.875 C 112.890625 -122.875 116.484375 -118.015625 113.40625 -107.015625 L 89.09375 -35.328125 L 60.921875 -105.46875 C 56.0625 -117.765625 59.140625 -122.875 69.125 -122.875 L 69.125 -128 L 16.640625 -128 Z M 16.640625 -122.875 "/>
</symbol>
<symbol overflow="visible" id="glyph0-19">
<path style="stroke:none;" d="M 114.4375 -115.203125 C 117.765625 -115.203125 122.875 -118.78125 122.875 -124.421875 C 122.875 -130.296875 116.734375 -134.140625 106.5 -134.140625 C 99.078125 -134.140625 91.90625 -130.046875 85.5 -125.703125 C 78.59375 -129.53125 70.40625 -131.84375 61.4375 -131.84375 C 36.09375 -131.84375 15.359375 -113.15625 15.359375 -90.375 C 15.359375 -72.453125 27.390625 -56.828125 44.546875 -50.4375 C 32.765625 -45.0625 20.484375 -36.09375 20.484375 -28.15625 C 20.484375 -18.4375 27.640625 -8.703125 38.40625 -3.84375 C 24.0625 3.328125 12.796875 13.0625 12.796875 20.484375 C 12.796875 36.609375 34.046875 50.6875 58.875 50.6875 C 91.390625 50.6875 117.765625 35.578125 117.765625 20.484375 C 117.765625 4.859375 103.421875 -8.1875 81.65625 -11.265625 C 56.3125 -14.84375 39.421875 -22.265625 39.421875 -30.71875 C 39.421875 -39.171875 49.40625 -47.359375 61.4375 -47.359375 C 86.78125 -47.359375 107.515625 -66.8125 107.515625 -90.375 C 107.515625 -102.90625 101.125 -114.4375 91.140625 -122.109375 C 93.703125 -123.390625 96.25 -124.15625 99.078125 -124.15625 C 107.015625 -124.15625 108.28125 -115.203125 114.4375 -115.203125 Z M 63.75 -53.5 C 48.890625 -52.21875 40.1875 -64.515625 38.65625 -88.578125 C 37.375 -111.609375 44.28125 -124.671875 59.140625 -125.703125 C 73.984375 -126.96875 82.6875 -115.203125 83.96875 -92.15625 C 85.5 -68.09375 78.59375 -54.53125 63.75 -53.5 Z M 53.5 0 C 80.125 0 97.796875 8.703125 97.796875 22.015625 C 97.796875 34.296875 80.125 44.546875 64.765625 44.546875 C 46.34375 44.546875 34.046875 33.53125 34.046875 22.015625 C 34.046875 11.515625 41.734375 5.125 53.5 0 Z M 53.5 0 "/>
</symbol>
<symbol overflow="visible" id="glyph0-20">
<path style="stroke:none;" d="M 88.3125 -131.84375 C 77.5625 -131.84375 67.578125 -129.03125 58.625 -123.90625 L 58.625 -134.140625 C 43.015625 -131.078125 28.421875 -129.03125 12.796875 -128 L 12.796875 -122.875 C 26.875 -122.375 33.53125 -116.984375 33.53125 -107.015625 L 33.53125 30.203125 C 33.53125 40.1875 26.875 45.5625 12.796875 46.078125 L 12.796875 51.203125 L 79.359375 51.203125 L 79.359375 46.078125 C 65.28125 45.5625 58.625 40.1875 58.625 30.203125 L 58.625 -3.328125 C 67.578125 1.03125 77.5625 3.84375 88.3125 3.84375 C 125.703125 3.84375 156.15625 -27.390625 156.15625 -65.28125 C 156.15625 -101.890625 125.703125 -131.84375 88.3125 -131.84375 Z M 88.828125 -2.046875 C 69.125 -2.046875 58.625 -10.5 58.625 -26.109375 L 58.625 -114.4375 C 65.28125 -121.859375 75.015625 -125.953125 88.0625 -125.953125 C 117.765625 -125.953125 127.484375 -93.4375 127.484375 -57.59375 C 127.484375 -18.6875 115.96875 -2.046875 88.828125 -2.046875 Z M 88.828125 -2.046875 "/>
</symbol>
<symbol overflow="visible" id="glyph0-21">
<path style="stroke:none;" d="M 88.3125 -131.84375 C 77.5625 -131.84375 67.578125 -129.03125 58.625 -123.90625 L 58.625 -198.140625 C 43.015625 -195.078125 28.421875 -193.03125 12.796875 -192 L 12.796875 -186.875 C 26.875 -186.375 33.53125 -180.984375 33.53125 -171.015625 L 33.53125 30.203125 C 33.53125 40.1875 26.875 45.5625 12.796875 46.078125 L 12.796875 51.203125 L 79.359375 51.203125 L 79.359375 46.078125 C 65.28125 45.5625 58.625 40.1875 58.625 30.203125 L 58.625 -3.328125 C 67.578125 1.03125 77.5625 3.84375 88.3125 3.84375 C 125.703125 3.84375 156.15625 -27.390625 156.15625 -65.28125 C 156.15625 -101.890625 125.703125 -131.84375 88.3125 -131.84375 Z M 88.828125 -2.046875 C 69.125 -2.046875 58.625 -10.5 58.625 -26.109375 L 58.625 -114.4375 C 65.28125 -121.859375 75.015625 -125.953125 88.0625 -125.953125 C 117.765625 -125.953125 127.484375 -93.4375 127.484375 -57.59375 C 127.484375 -18.6875 115.96875 -2.046875 88.828125 -2.046875 Z M 88.828125 -2.046875 "/>
</symbol>
<symbol overflow="visible" id="glyph0-22">
<path style="stroke:none;" d="M 145.65625 -101.125 C 145.65625 -119.546875 132.09375 -131.84375 110.59375 -131.84375 C 91.140625 -131.84375 75.015625 -125.1875 58.625 -109.828125 L 58.625 -134.140625 C 43.015625 -131.078125 28.421875 -129.03125 12.796875 -128 L 12.796875 -122.875 C 26.875 -122.375 33.53125 -116.984375 33.53125 -107.015625 L 33.53125 -20.984375 C 33.53125 -11.515625 26.875 -5.890625 12.796875 -5.125 L 12.796875 0 L 78.078125 0 L 78.078125 -5.125 C 64 -5.625 58.625 -10.234375 58.625 -17.921875 L 58.625 -99.078125 C 70.140625 -112.890625 84.734375 -122.875 98.8125 -122.875 C 113.15625 -122.875 120.578125 -114.4375 120.578125 -96 L 120.578125 -17.921875 C 120.578125 -10.234375 115.203125 -5.625 101.125 -5.125 L 101.125 0 L 166.40625 0 L 166.40625 -5.125 C 152.3125 -5.890625 145.65625 -11.515625 145.65625 -20.984375 Z M 145.65625 -101.125 "/>
</symbol>
<symbol overflow="visible" id="glyph0-23">
<path style="stroke:none;" d="M 114.9375 -20.984375 L 114.9375 -101.125 C 114.9375 -119.546875 101.375 -131.84375 79.875 -131.84375 C 60.15625 -131.84375 47.109375 -126.96875 32.765625 -117.5 C 25.34375 -112.390625 21.25 -106.5 21.25 -100.609375 C 21.25 -94.203125 23.8125 -91.390625 28.15625 -91.390625 C 35.078125 -91.390625 36.609375 -112.390625 47.109375 -117.25 C 53.765625 -120.828125 61.1875 -122.875 70.65625 -122.875 C 83.453125 -122.875 89.859375 -116.484375 89.859375 -101.125 L 89.859375 -76.28125 C 43.515625 -69.125 12.796875 -47.109375 12.796875 -21.25 C 12.796875 -5.890625 22.78125 2.5625 38.65625 2.5625 C 62.203125 2.5625 75.015625 -0.25 90.875 -13.3125 L 92.921875 0 L 135.6875 0 L 135.6875 -5.125 C 121.59375 -5.125 114.9375 -11.515625 114.9375 -20.984375 Z M 79.359375 -11.515625 C 73.984375 -8.953125 66.296875 -6.90625 59.640625 -6.90625 C 45.5625 -6.90625 38.140625 -13.0625 38.140625 -26.375 C 38.140625 -46.078125 58.875 -63.75 89.859375 -70.140625 L 89.859375 -26.875 C 89.859375 -20.984375 85.5 -14.84375 79.359375 -11.515625 Z M 79.359375 -11.515625 "/>
</symbol>
<symbol overflow="visible" id="glyph0-24">
<path style="stroke:none;" d="M 80.640625 3.84375 C 118.015625 3.84375 148.484375 -27.390625 148.484375 -65.28125 C 148.484375 -101.890625 118.015625 -131.84375 80.640625 -131.84375 C 43.265625 -131.84375 12.796875 -101.890625 12.796875 -65.28125 C 12.796875 -27.390625 43.265625 3.84375 80.640625 3.84375 Z M 84.484375 -2.296875 C 59.140625 -0.25 44.03125 -21.25 41.46875 -62.203125 C 38.90625 -101.625 51.203125 -123.90625 76.796875 -125.703125 C 102.140625 -127.75 117.25 -107.78125 119.546875 -68.359375 C 122.375 -27.140625 110.078125 -4.09375 84.484375 -2.296875 Z M 84.484375 -2.296875 "/>
</symbol>
<symbol overflow="visible" id="glyph0-25">
<path style="stroke:none;" d="M 44.28125 -167.171875 C 52.21875 -167.171875 58.625 -173.5625 58.625 -181.5 C 58.625 -189.4375 52.21875 -195.84375 44.28125 -195.84375 C 36.359375 -195.84375 29.953125 -189.4375 29.953125 -181.5 C 29.953125 -173.5625 36.359375 -167.171875 44.28125 -167.171875 Z M 58.625 -20.984375 L 58.625 -134.140625 C 43.015625 -131.078125 28.421875 -129.03125 12.796875 -128 L 12.796875 -122.875 C 26.875 -122.375 33.53125 -116.984375 33.53125 -107.015625 L 33.53125 -20.984375 C 33.53125 -11.515625 26.875 -5.890625 12.796875 -5.125 L 12.796875 0 L 79.359375 0 L 79.359375 -5.125 C 65.28125 -5.890625 58.625 -11.515625 58.625 -20.984375 Z M 58.625 -20.984375 "/>
</symbol>
<symbol overflow="visible" id="glyph0-26">
<path style="stroke:none;" d="M 227.578125 -101.125 C 227.578125 -119.546875 214.015625 -131.84375 192.515625 -131.84375 C 174.078125 -131.84375 158.46875 -124.15625 142.84375 -108.03125 C 140.546875 -122.375 127.234375 -131.84375 108.03125 -131.84375 C 89.59375 -131.84375 73.984375 -125.953125 58.625 -112.125 L 58.625 -134.140625 C 43.015625 -131.078125 28.421875 -129.03125 12.796875 -128 L 12.796875 -122.875 C 26.875 -122.375 33.53125 -116.984375 33.53125 -107.015625 L 33.53125 -20.984375 C 33.53125 -11.515625 26.875 -5.890625 12.796875 -5.125 L 12.796875 0 L 78.078125 0 L 78.078125 -5.125 C 64 -5.625 58.625 -10.234375 58.625 -17.921875 L 58.625 -102.140625 C 69.625 -114.171875 83.203125 -122.875 96.25 -122.875 C 110.59375 -122.875 118.015625 -114.4375 118.015625 -96 L 118.015625 -17.921875 C 118.015625 -10.234375 112.640625 -5.625 98.5625 -5.125 L 98.5625 0 L 163.84375 0 L 163.84375 -5.125 C 149.765625 -5.890625 143.109375 -11.515625 143.109375 -20.984375 L 143.109375 -98.296875 C 154.109375 -112.390625 167.6875 -122.875 180.734375 -122.875 C 195.078125 -122.875 202.5 -114.4375 202.5 -96 L 202.5 -17.921875 C 202.5 -10.234375 197.125 -5.625 183.046875 -5.125 L 183.046875 0 L 248.3125 0 L 248.3125 -5.125 C 234.234375 -5.890625 227.578125 -11.515625 227.578125 -20.984375 Z M 227.578125 -101.125 "/>
</symbol>
<symbol overflow="visible" id="glyph0-27">
<path style="stroke:none;" d="M 68.609375 -73.46875 L 108.546875 -108.796875 C 119.546875 -118.53125 134.140625 -122.875 145.15625 -122.875 L 145.15625 -128 L 109.3125 -128 L 109.0625 -122.875 C 113.65625 -122.875 114.171875 -121.859375 99.328125 -108.796875 L 58.375 -72.953125 L 58.875 -171.015625 L 58.875 -198.140625 C 43.265625 -195.078125 28.671875 -193.03125 13.0625 -192 L 13.0625 -186.875 C 25.59375 -186.375 32.25 -182.265625 33.53125 -174.34375 L 33.53125 -18.4375 C 33.53125 -10.234375 26.375 -5.625 12.796875 -5.125 L 12.796875 0 L 73.46875 0 L 73.46875 -5.125 C 65.53125 -5.625 58.875 -8.953125 58.109375 -14.34375 L 58.375 -57.34375 L 88.578125 -24.3125 C 98.296875 -13.5625 104.1875 -5.375 104.1875 0 L 148.484375 0 L 148.484375 -5.125 C 136.453125 -5.125 123.90625 -13.5625 113.921875 -24.3125 Z M 68.609375 -73.46875 "/>
</symbol>
<symbol overflow="visible" id="glyph0-28">
<path style="stroke:none;" d="M 12.796875 -65.28125 C 12.796875 -23.8125 39.9375 3.84375 80.640625 3.84375 C 96.515625 3.84375 112.640625 -3.578125 122.875 -14.34375 L 118.015625 -18.6875 C 108.796875 -8.703125 97.796875 -2.8125 81.15625 -2.8125 C 58.109375 -2.8125 44.03125 -23.046875 41.46875 -62.203125 C 41.21875 -65.53125 41.21875 -68.859375 41.21875 -71.9375 C 41.21875 -107.015625 54.53125 -125.953125 80.390625 -125.953125 C 85.765625 -125.953125 90.375 -124.921875 94.71875 -123.140625 C 105.21875 -118.265625 106.75 -100.09375 113.65625 -100.09375 C 118.015625 -100.09375 120.578125 -102.90625 120.578125 -109.3125 C 120.578125 -115.203125 116.984375 -121.09375 110.34375 -124.671875 C 102.90625 -128.765625 91.640625 -131.84375 80.640625 -131.84375 C 43.265625 -131.84375 12.796875 -101.890625 12.796875 -65.28125 Z M 12.796875 -65.28125 "/>
</symbol>
</g>
</defs>
<g id="surface1">
<rect x="0" y="0" width="1053.421875" height="1504.015625" style="fill:rgb(93.333333%,93.333333%,93.333333%);fill-opacity:1;stroke:none;"/>
<g style="fill:rgb(0%,0%,0%);fill-opacity:1;">
  <use xlink:href="#glyph0-1" x="16" y="208"/>
  <use xlink:href="#glyph0-2" x="179.578125" y="208"/>
  <use xlink:href="#glyph0-3" x="340.859375" y="208"/>
  <use xlink:href="#glyph0-4" x="433.015625" y="208"/>
  <use xlink:href="#glyph0-5" x="612.21875" y="208"/>
  <use xlink:href="#glyph0-6" x="714.625" y="208"/>
</g>
<g style="fill:rgb(0%,0%,0%);fill-opacity:1;">
  <use xlink:href="#glyph0-7" x="16" y="515.203125"/>
  <use xlink:href="#glyph0-8" x="184.953125" y="515.203125"/>
  <use xlink:href="#glyph0-9" x="320.640625" y="515.203125"/>
  <use xlink:href="#glyph0-10" x="471.6875" y="515.203125"/>
  <use xlink:href="#glyph0-11" x="586.890625" y="515.203125"/>
  <use xlink:href="#glyph0-12" x="720.015625" y="515.203125"/>
</g>
<g style="fill:rgb(0%,0%,0%);fill-opacity:1;">
  <use xlink:href="#glyph0-13" x="16" y="822.40625"/>
  <use xlink:href="#glyph0-14" x="172.15625" y="822.40625"/>
  <use xlink:href="#glyph0-15" x="353.921875" y="822.40625"/>
  <use xlink:href="#glyph0-16" x="494.71875" y="822.40625"/>
  <use xlink:href="#glyph0-17" x="663.671875" y="822.40625"/>
  <use xlink:href="#glyph0-18" x="883.828125" y="822.40625"/>
</g>
<g style="fill:rgb(0%,0%,0%);fill-opacity:1;">
  <use xlink:href="#glyph0-19" x="16" y="1129.609375"/>
  <use xlink:href="#glyph0-20" x="151.6875" y="1129.609375"/>
  <use xlink:href="#glyph0-21" x="320.640625" y="1129.609375"/>
  <use xlink:href="#glyph0-22" x="489.59375" y="1129.609375"/>
  <use xlink:href="#glyph0-23" x="668.796875" y="1129.609375"/>
  <use xlink:href="#glyph0-24" x="817.28125" y="1129.609375"/>
</g>
<g style="fill:rgb(0%,0%,0%);fill-opacity:1;">
  <use xlink:href="#glyph0-25" x="16" y="1436.8125"/>
  <use xlink:href="#glyph0-26" x="108.15625" y="1436.8125"/>
  <use xlink:href="#glyph0-27" x="369.28125" y="1436.8125"/>
  <use xlink:href="#glyph0-28" x="530.5625" y="1436.8125"/>
</g>
</g>
</svg>
